{
  "VOTING_TO_CHANGE_KEYS_ADDRESS": "",
  "VOTING_TO_CHANGE_MIN_THRESHOLD_ADDRESS": "",
  "VOTING_TO_CHANGE_PROXY_ADDRESS": "",
  "BALLOTS_STORAGE_ADDRESS": "",
  "KEYS_MANAGER_ADDRESS": "",
  "METADATA_ADDRESS": "",
  "PROXY_ADDRESS": "",
  "MOC": "d346a245138999c0fe46dba36724d09203c71e22",
  "POA_ADDRESS": "0x8bf38d4764929064f2d4d3a56520a76ab3df415b"
}